{
  "01_00002_0": [
    38.070425033569336, 
    33.264573097229004, 
    40.62175488471985, 
    32.774922132492065, 
    35.574126958847046, 
    36.12914204597473, 
    32.51059293746948, 
    27.050586938858032, 
    27.744621992111206, 
    26.971517086029053
  ], 
  "01_00012_0": [
    27.471123933792114, 
    24.518662929534912, 
    17.77914810180664, 
    18.13800311088562, 
    17.749710083007812, 
    17.44179391860962, 
    16.723159790039062, 
    16.50913906097412, 
    17.169146060943604, 
    16.503415822982788
  ], 
  "01_00254_0": [
    15.484050035476685, 
    15.93743109703064, 
    19.529676914215088, 
    17.562440872192383, 
    16.375876903533936, 
    17.635577917099, 
    20.46539306640625, 
    19.48757004737854, 
    19.4968740940094, 
    16.993842124938965
  ], 
  "01_00266_0": [
    5.392162084579468, 
    4.830690860748291, 
    4.995857000350952, 
    5.268880844116211, 
    5.785346984863281, 
    5.359905958175659, 
    5.166068077087402, 
    4.861227035522461, 
    4.9588611125946045, 
    5.053972005844116
  ], 
  "01_00408_0": [
    47.45680499076843, 
    49.2986798286438, 
    51.42843508720398, 
    50.15573000907898, 
    50.30060791969299, 
    67.7968430519104, 
    60.28267288208008, 
    45.8485848903656, 
    45.50675702095032, 
    43.596904039382935
  ], 
  "01_03236_0": [
    0.7525429725646973, 
    0.8385310173034668, 
    0.7012839317321777, 
    0.7856459617614746, 
    0.8028011322021484, 
    0.7051517963409424, 
    1.2024259567260742, 
    0.7294511795043945, 
    1.0138659477233887, 
    0.943882942199707
  ], 
  "01_03281_0": [
    1.709434986114502, 
    1.2933650016784668, 
    1.2776288986206055, 
    1.3076379299163818, 
    1.3102290630340576, 
    2.323293924331665, 
    1.3160059452056885, 
    1.6114511489868164, 
    1.6688950061798096, 
    1.4646921157836914
  ], 
  "01_04203_0": [
    0.6532108783721924, 
    0.7185721397399902, 
    0.7062499523162842, 
    0.697566032409668, 
    0.7083950042724609, 
    0.6776101589202881, 
    0.7489089965820312, 
    0.4729039669036865, 
    0.40990591049194336, 
    0.5598130226135254
  ], 
  "01_16004_0": [
    25.930374145507812, 
    25.264791011810303, 
    28.716633081436157, 
    22.829969882965088, 
    23.843479871749878, 
    25.062204122543335, 
    25.435089111328125, 
    25.151912927627563, 
    25.132240772247314, 
    22.951483964920044
  ], 
  "01_16222_0": [
    2.2926888465881348, 
    3.150585174560547, 
    0.9793410301208496, 
    0.9669508934020996, 
    0.977780818939209, 
    1.0237369537353516, 
    0.976344108581543, 
    0.980525016784668, 
    1.020684003829956, 
    1.0057837963104248
  ], 
  "max": {
    "01_00002_0": 73.60316467285156, 
    "01_00012_0": 0.0012314317282289267, 
    "01_00254_0": 0.001145500224083662, 
    "01_00266_0": 1.0, 
    "01_00408_0": 103843.1484375, 
    "01_03236_0": 316.6069030761719, 
    "01_03281_0": 30334.880859375, 
    "01_04203_0": 0.004748071078211069, 
    "01_16004_0": 314.9315490722656, 
    "01_16222_0": 103903.21875
  }, 
  "min": {
    "01_00002_0": -55.314762115478516, 
    "01_00012_0": -9.41752809069385e-09, 
    "01_00254_0": 0.0, 
    "01_00266_0": -0.0007370734238065779, 
    "01_00408_0": 21165.244140625, 
    "01_03236_0": 191.73410034179688, 
    "01_03281_0": 13.56760025024414, 
    "01_04203_0": 0.0, 
    "01_16004_0": 196.98890686035156, 
    "01_16222_0": 94235.0859375
  }, 
  "size": {
    "01_00002_0": 251755242, 
    "01_00012_0": 123591475, 
    "01_00254_0": 110546359, 
    "01_00266_0": 30729906, 
    "01_00408_0": 494887764, 
    "01_03236_0": 6528938, 
    "01_03281_0": 14047866, 
    "01_04203_0": 1872490, 
    "01_16004_0": 204560218, 
    "01_16222_0": 10014650
  }
}