{
  "01_00002_0": [
    25.28884482383728, 
    26.860210180282593, 
    25.889134168624878, 
    23.33621597290039, 
    23.4499249458313, 
    24.42809510231018, 
    24.00326108932495, 
    23.348647832870483, 
    23.255956888198853, 
    24.956470012664795
  ], 
  "01_00012_0": [
    17.240701913833618, 
    20.464861154556274, 
    18.927539110183716, 
    18.14509606361389, 
    16.377103090286255, 
    18.058722972869873, 
    17.492660999298096, 
    16.26072096824646, 
    17.424680948257446, 
    14.83086109161377
  ], 
  "01_00254_0": [
    11.73827314376831, 
    11.802764892578125, 
    11.50039792060852, 
    10.977818012237549, 
    10.947324991226196, 
    11.791133880615234, 
    11.244424819946289, 
    11.353316068649292, 
    10.950683116912842, 
    11.130121946334839
  ], 
  "01_00266_0": [
    3.61211895942688, 
    3.274656057357788, 
    3.2123301029205322, 
    3.2237300872802734, 
    3.4338109493255615, 
    3.644200086593628, 
    3.843174934387207, 
    3.7418060302734375, 
    3.919834852218628, 
    3.93851900100708
  ], 
  "01_00408_0": [
    24.666784048080444, 
    25.0936062335968, 
    23.118488073349, 
    22.114150047302246, 
    21.103097915649414, 
    21.267056941986084, 
    22.36487317085266, 
    26.25885796546936, 
    23.5758798122406, 
    24.062335968017578
  ], 
  "01_03236_0": [
    0.9845068454742432, 
    0.7479360103607178, 
    0.7829999923706055, 
    0.6924037933349609, 
    0.7064070701599121, 
    0.7013440132141113, 
    0.8804738521575928, 
    0.7256031036376953, 
    0.8787729740142822, 
    0.7890110015869141
  ], 
  "01_03281_0": [
    0.5568070411682129, 
    0.5310330390930176, 
    0.5456588268280029, 
    0.5877170562744141, 
    0.5506529808044434, 
    0.545619010925293, 
    0.5469069480895996, 
    0.560150146484375, 
    0.5533790588378906, 
    0.5462808609008789
  ], 
  "01_04203_0": [
    0.5776920318603516, 
    0.3500669002532959, 
    0.34436988830566406, 
    0.33915090560913086, 
    0.33150696754455566, 
    0.337723970413208, 
    0.3407919406890869, 
    0.34450602531433105, 
    0.34772801399230957, 
    0.3340139389038086
  ], 
  "01_16004_0": [
    14.865049839019775, 
    15.174968004226685, 
    13.578488111495972, 
    14.177836179733276, 
    14.27364206314087, 
    14.911125183105469, 
    21.867244958877563, 
    26.471790075302124, 
    24.495857000350952, 
    27.444207906723022
  ], 
  "01_16222_0": [
    0.8143370151519775, 
    0.8376309871673584, 
    0.8371729850769043, 
    0.8504331111907959, 
    0.7565031051635742, 
    0.7454390525817871, 
    0.7475419044494629, 
    1.4587290287017822, 
    1.2558751106262207, 
    1.0143208503723145
  ], 
  "max": {
    "01_00002_0": 73.60316467285156, 
    "01_00012_0": 0.0012314317282289267, 
    "01_00254_0": 0.001145500224083662, 
    "01_00266_0": 1.0, 
    "01_00408_0": 103843.1484375, 
    "01_03236_0": 316.6069030761719, 
    "01_03281_0": 30334.880859375, 
    "01_04203_0": 0.004748071078211069, 
    "01_16004_0": 314.9315490722656, 
    "01_16222_0": 103903.21875
  }, 
  "min": {
    "01_00002_0": -55.314762115478516, 
    "01_00012_0": -9.41752809069385e-09, 
    "01_00254_0": 0.0, 
    "01_00266_0": -0.0007370734238065779, 
    "01_00408_0": 21165.244140625, 
    "01_03236_0": 191.73410034179688, 
    "01_03281_0": 13.56760025024414, 
    "01_04203_0": 0.0, 
    "01_16004_0": 196.98890686035156, 
    "01_16222_0": 94235.0859375
  }, 
  "size": {
    "01_00002_0": 277922471, 
    "01_00012_0": 138326786, 
    "01_00254_0": 120734960, 
    "01_00266_0": 26983076, 
    "01_00408_0": 292824368, 
    "01_03236_0": 3217068, 
    "01_03281_0": 10756012, 
    "01_04203_0": 3531044, 
    "01_16004_0": 98031681, 
    "01_16222_0": 5907283
  }
}